{
  "total_pages": 49,
  "total_records": 2411,
  "next": "https://khalti.com/api/merchant-transaction/?page=2",
  "previous": null,
  "record_range": [1, 50],
  "current_page": 1,
  "records": [
    {
      "idx": "HHW49uMWGBPw7AJ83jvV4h",
      "type": { "name": "Wallet payment", "idx": "2jwzDS9wkxbkDFquJqfAEC" },
      "state": {
        "template": "has been initiated",
        "name": "Initiated",
        "idx": "RzwhZdcAKj9HDWtEmWeu9a"
      },
      "amount": 1000,
      "fee_amount": 30,
      "refunded": false,
      "created_on": "2018-03-27T21:56:04.654680+05:45",
      "source": {
        "mobile": "9801165561",
        "name": "Khalti Support",
        "idx": "rkXytkbF6BoiXkmeopFPnN"
      },
      "ebanker": null,
      "user": {
        "mobile": "9801165561",
        "name": "Khalti Support",
        "idx": "rkXytkbF6BoiXkmeopFPnN"
      }
    },
    {
      "idx": "DQrTKPzmER7gbzL4CgzzgE",
      "type": { "name": "Wallet payment", "idx": "2jwzDS9wkxbkDFquJqfAEC" },
      "state": {
        "template": "has been initiated",
        "name": "Initiated",
        "idx": "RzwhZdcAKj9HDWtEmWeu9a"
      },
      "amount": 1000,
      "fee_amount": 30,
      "refunded": false,
      "created_on": "2018-03-27T21:56:03.593307+05:45",
      "source": {
        "mobile": "9801165561",
        "name": "Khalti Support",
        "idx": "rkXytkbF6BoiXkmeopFPnN"
      },
      "ebanker": null,
      "user": {
        "mobile": "9801165561",
        "name": "Khalti Support",
        "idx": "rkXytkbF6BoiXkmeopFPnN"
      }
    },
    {
      "idx": "KnRgy9VGGXaHrK6LcybZm3",
      "type": { "name": "Wallet payment", "idx": "2jwzDS9wkxbkDFquJqfAEC" },
      "state": {
        "template": "has been initiated",
        "name": "Initiated",
        "idx": "RzwhZdcAKj9HDWtEmWeu9a"
      },
      "amount": 1000,
      "fee_amount": 30,
      "refunded": false,
      "created_on": "2018-03-27T21:56:03.206139+05:45",
      "source": {
        "mobile": "9801165561",
        "name": "Khalti Support",
        "idx": "rkXytkbF6BoiXkmeopFPnN"
      },
      "ebanker": null,
      "user": {
        "mobile": "9801165561",
        "name": "Khalti Support",
        "idx": "rkXytkbF6BoiXkmeopFPnN"
      }
    },
    {
      "idx": "JecmWSe6znziP5TTAAXgUe",
      "type": { "name": "Wallet payment", "idx": "2jwzDS9wkxbkDFquJqfAEC" },
      "state": {
        "template": "has been initiated",
        "name": "Initiated",
        "idx": "RzwhZdcAKj9HDWtEmWeu9a"
      },
      "amount": 1000,
      "fee_amount": 30,
      "refunded": false,
      "created_on": "2018-03-27T21:56:02.981974+05:45",
      "source": {
        "mobile": "9801165561",
        "name": "Khalti Support",
        "idx": "rkXytkbF6BoiXkmeopFPnN"
      },
      "ebanker": null,
      "user": {
        "mobile": "9801165561",
        "name": "Khalti Support",
        "idx": "rkXytkbF6BoiXkmeopFPnN"
      }
    },
    {
      "idx": "ozdBA4pkEuUH2BMDckGXsk",
      "type": { "name": "Wallet payment", "idx": "2jwzDS9wkxbkDFquJqfAEC" },
      "state": {
        "template": "has been initiated",
        "name": "Initiated",
        "idx": "RzwhZdcAKj9HDWtEmWeu9a"
      },
      "amount": 1000,
      "fee_amount": 30,
      "refunded": false,
      "created_on": "2018-03-27T21:56:02.794787+05:45",
      "source": {
        "mobile": "9801165561",
        "name": "Khalti Support",
        "idx": "rkXytkbF6BoiXkmeopFPnN"
      },
      "ebanker": null,
      "user": {
        "mobile": "9801165561",
        "name": "Khalti Support",
        "idx": "rkXytkbF6BoiXkmeopFPnN"
      }
    },
    {
      "idx": "VYmtg2GRYR6HMuqYL5QLxJ",
      "type": { "name": "Wallet payment", "idx": "2jwzDS9wkxbkDFquJqfAEC" },
      "state": {
        "template": "has been initiated",
        "name": "Initiated",
        "idx": "RzwhZdcAKj9HDWtEmWeu9a"
      },
      "amount": 1000,
      "fee_amount": 30,
      "refunded": false,
      "created_on": "2018-03-27T21:55:53.643941+05:45",
      "source": {
        "mobile": "9801165561",
        "name": "Khalti Support",
        "idx": "rkXytkbF6BoiXkmeopFPnN"
      },
      "ebanker": null,
      "user": {
        "mobile": "9801165561",
        "name": "Khalti Support",
        "idx": "rkXytkbF6BoiXkmeopFPnN"
      }
    }
  ]
}
